[
{
  "pk": 1,
  "model": "datamill_website.factor",
  "fields": {
    "data_category": "CB",
    "fac_type": "HW",
    "internal_name": "cpu_arch",
    "description": "Check the architectures your experiment can run on."
  }
},
{
  "pk": 2,
  "model": "datamill_website.factor",
  "fields": {
    "data_category": "RA",
    "fac_type": "HW",
    "internal_name": "cpu_mhz",
    "description": "Select the minimum and maximum CPU speeds your experiment can run on."
  }
},
{
  "pk": 3,
  "model": "datamill_website.factor",
  "fields": {
    "data_category": "RA",
    "fac_type": "HW",
    "internal_name": "num_cpus",
    "description": "Select the minimum and maximum CPU core counts your experiment can run on."
  }
},
{
  "pk": 4,
  "model": "datamill_website.factor",
  "fields": {
    "data_category": "RA",
    "fac_type": "HW",
    "internal_name": "ram_sz",
    "description": "Select the minimum and maximum amounts of RAM your experiment can run on."
  }
},
{
  "pk": 5,
  "model": "datamill_website.factor",
  "fields": {
    "data_category": "RA",
    "fac_type": "HW",
    "internal_name": "page_sz",
    "description": "Select the minimum and maximum page sizes your experiment can run on."
  }
},
{
  "pk": 6,
  "model": "datamill_website.factor",
  "fields": {
    "data_category": "CB",
    "fac_type": "SW",
    "internal_name": "env_padding",
    "description": "Non-zero memory padding levels will offset your binary in memory, possibly revealing a memory mapping performance effect."
  }
},
{
  "pk": 7,
  "model": "datamill_website.factor",
  "fields": {
    "data_category": "CB",
    "fac_type": "SW",
    "internal_name": "link_order",
    "description": "Link orders are enforced through a compiler wrapper, and may reveal memory mapping and cache-related performance effects."
  }
},
{
  "pk": 8,
  "model": "datamill_website.factor",
  "fields": {
    "data_category": "CB",
    "fac_type": "SW",
    "internal_name": "opt_flag",
    "description": "Compiler optimization levels are very likely to affect performance, and should be used to evaluate how different programs respond to them. This factor only affects experiments that invoke GCC or LLVM in their setup scripts."
  }
},
{
  "pk": 9,
  "model": "datamill_website.factor",
  "fields": {
    "data_category": "CB",
    "fac_type": "SW",
    "internal_name": "address_randomization",
    "description": "Address space layout randomization (ASLR) is turned 'on' by default in Linux for security reasons, and can cause performance non-determinism due to memory layout effects."
  }
},
{
  "pk": 10,
  "model": "datamill_website.factor",
  "fields": {
    "data_category": "CB",
    "fac_type": "SW",
    "internal_name": "drop_caches",
    "description": "When set to 'on', cache dropping will free the page, dentry, and inode caches right before running your experiment, approximating the conditions immediately after a cold boot and possibly reducing performance variance."
  }
},
{
  "pk": 11,
  "model": "datamill_website.factor",
  "fields": {
    "data_category": "CB",
    "fac_type": "SW",
    "internal_name": "autogroup",
    "description": "Autogroup is a scheduling policy that aims to reduce scheduling latency on desktop systems. Evaluating both levels of autogroup may reveal a performance effect on multi-thread or multi-process experiments."
  }
},
{
  "pk": 12,
  "model": "datamill_website.factor",
  "fields": {
    "data_category": "CB",
    "fac_type": "SW",
    "internal_name": "freq_scaling",
    "description": "Lowering the processor's frequency during idle periods saves power but generally causes performance reductions. Evaluating both levels of this factor is likely to reveal a performance effect, specially if the application has alternating periods of I/O and CPU-boundedness."
  }
},
{
  "pk": 13,
  "model": "datamill_website.factor",
  "fields": {
    "data_category": "CB",
    "fac_type": "SW",
    "internal_name": "swap",
    "description": "Linux can unload unused application data to disk to free memory for other uses. Setting this to 'on' may reveal a performance effect if your application can use each system's amount of physical RAM."
  }
},
{
  "pk": 14,
  "model": "datamill_website.factor",
  "fields": {
    "data_category": "CB",
    "fac_type": "SW",
    "internal_name": "compiler",
    "description": "The choice of compiler is very important for performance. We enforce compiler choices through a compiler wrapper. This factor only affects experiments that invoke GCC or LLVM in their setup scripts."
  }
},
{
  "pk": 15,
  "model": "datamill_website.factor",
  "fields": {
    "data_category": "CB",
    "fac_type": "SW",
    "internal_name": "filesystem",
    "description": "The filesystem can be a source of performance effects if your experiment makes several disk accesses. Selecting multiple filesystems may reveal such an effect."
  }
},
{
  "pk": 16,
  "model": "datamill_website.factor",
  "fields": {
    "data_category": "RA",
    "fac_type": "HW",
    "internal_name": "gpu_mhz",
    "description": "Select the minimum and maximum GPU speeds your experiment can run on."
  }
},
{
  "pk": 17,
  "model": "datamill_website.factor",
  "fields": {
    "data_category": "RA",
    "fac_type": "HW",
    "internal_name": "ram_mhz",
    "description": "Select the minimum and maximum RAM speeds your experiment can run on."
  }
}
]
