{
    "cpu_arch": "x86_64",
    "uuid": "0e5bec3e-e9b7-4fe7-a482-6f576a4b0843",
    "ip": "192.168.161.80",
    "num_cpus": 2,
    "hostname": "testworker",
    "cpu_model": "Intel(R) Core(TM)2 Duo CPU     U9600  @ 1.60GHz",
    "ram_sz": 13789344,
    "page_sz": 4096,
    "cpu_mhz": 1800,
    "hello_version": "1.0.2",
    "cpu_flags": "fpu vme de pse tsc msr pae mce cx8 apic sep mtrr pge mca cmov pat pse36 clflush dts acpi mmx fxsr sse sse2 ss ht tm pbe syscall nx lm constant_tsc arch_perfmon pebs bts rep_good nopl aperfmperf pni dtes64 monitor ds_cpl vmx smx est tm2 ssse3 cx16 xtpr pdcm sse4_1 xsave lahf_lm dtherm tpr_shadow vnmi flexpriority",
    "autogroup": ["on", "off"],
    "env_padding": ["0", "1024", "2048"],
    "fpie": "off",
    "link_order": "default",
    "opt_flag": "-O2",
    "address_randomization": "on",
    "drop_caches": "off",
    "freq_scaling": "off",
    "swap": "on",
    "sys_time": ["on", "off"],
    "compiler": "default",
    "filesystem": "ext4",
    "gpu_mhz": 33
}
