{
    "factors":{
    "address_randomization": "on", 
    "env_padding": "0", 
    "opt_flag": "-O3", 
    "autogroup": "on", 
    "freq_scaling": "off", 
    "swap": "on", 
    "drop_caches": "off",
    "fpie": "off",
    "sys_time": "on",
    "link_order": "alphabetical"},
    "name":"lol"
}
